0003000080129b24,JasonS_atg@xboxtest.com,E0505C8B900B918ECCF4E57208D36186,00000001,04020406
0003000080129b25,HungN_atg@xboxtest.com,13197ED419B6828DC1445C49C9CF7F1A,00000001,04020406
0003000080129b26,CliffG_atg@xboxtest.com,6FFC812338D3AF2C903572C1041B2EF6,00000001,04020406
0003000080129b27,RichardB_atg@xboxtest.com,5735E876747B3CE627AD536D6FA846D5,00000001,04020406
0003000080129b28,ForrestT_atg@xboxtest.com,4DC4D882D14BA631D486C39203B846F6,00000000,00000000
0003000080129b29,PeteI_atg@xboxtest.com,FF6E18CC1DAEDE64F12F8320844A5BFB,00000000,00000000
0003000080129b2a,DanB_atg@xboxtest.com,89AF6BB902C535F7F322B51E5AC3D6AE,00000000,00000000
0003000080129b2b,SweetDeveloperLove_atg@xboxtest.com,CC08C51267D8FB742174D8FECE9FC15B,00000000,00000000 