e:\cafe\v3\support\guitools\coclip.h
e:\cafe\v3\support\guitools\imewrap.h
e:\cafe\v3\support\guitools\udialog.h
e:\cafe\v3\support\guitools\umsgbox.h
e:\cafe\v3\support\guitools\uwindow.h
e:\cafe\v3\support\guitools\ide\filetabl.h
e:\cafe\v3\support\guitools\ide\dbg\uidam.h
e:\cafe\v3\support\guitools\ide\dbg\uidebug.h
e:\cafe\v3\support\guitools\ide\dbg\uieewnd.h
e:\cafe\v3\support\guitools\ide\dbg\uiexcpt.h
e:\cafe\v3\support\guitools\ide\dbg\uilocals.h
e:\cafe\v3\support\guitools\ide\dbg\uimem.h
e:\cafe\v3\support\guitools\ide\dbg\uiqw.h
e:\cafe\v3\support\guitools\ide\dbg\uireg.h
e:\cafe\v3\support\guitools\ide\dbg\uistack.h
e:\cafe\v3\support\guitools\ide\dbg\uithread.h
e:\cafe\v3\support\guitools\ide\dbg\uivar.h
e:\cafe\v3\support\guitools\ide\dbg\uiwatch.h
e:\cafe\v3\support\guitools\ide\eds\cofile.h
e:\cafe\v3\support\guitools\ide\eds\coresscr.h
e:\cafe\v3\support\guitools\ide\eds\cosource.h
e:\cafe\v3\support\guitools\ide\eds\uaccedit.h
e:\cafe\v3\support\guitools\ide\eds\udlgedit.h
e:\cafe\v3\support\guitools\ide\eds\ueditor.h
e:\cafe\v3\support\guitools\ide\eds\ufindinf.h
e:\cafe\v3\support\guitools\ide\eds\ufindrep.h
e:\cafe\v3\support\guitools\ide\eds\uimgedit.h
e:\cafe\v3\support\guitools\ide\eds\umenedit.h
e:\cafe\v3\support\guitools\ide\eds\uresbrws.h
e:\cafe\v3\support\guitools\ide\eds\uresedit.h
e:\cafe\v3\support\guitools\ide\eds\urestabl.h
e:\cafe\v3\support\guitools\ide\eds\ustredit.h
e:\cafe\v3\support\guitools\ide\eds\usymdlg.h
e:\cafe\v3\support\guitools\ide\eds\uveredit.h
e:\cafe\v3\support\guitools\ide\prj\coprject.h
e:\cafe\v3\support\guitools\ide\prj\odbcdlgs.h
e:\cafe\v3\support\guitools\ide\prj\uappwiz.h
e:\cafe\v3\support\guitools\ide\prj\ucwzdlg.h
e:\cafe\v3\support\guitools\ide\prj\uiextwiz.h
e:\cafe\v3\support\guitools\ide\prj\uitarget.h
e:\cafe\v3\support\guitools\ide\prj\uogaldlg.h
e:\cafe\v3\support\guitools\ide\prj\uprjfile.h
e:\cafe\v3\support\guitools\ide\prj\uprjprop.h
e:\cafe\v3\support\guitools\ide\prj\uprjtdlg.h
e:\cafe\v3\support\guitools\ide\prj\uprojwiz.h
e:\cafe\v3\support\guitools\ide\prj\utstapwz.h
e:\cafe\v3\support\guitools\ide\shl\coconnec.h
e:\cafe\v3\support\guitools\ide\shl\cowrkspc.h
e:\cafe\v3\support\guitools\ide\shl\ucommdlg.h
e:\cafe\v3\support\guitools\ide\shl\ucustdlg.h
e:\cafe\v3\support\guitools\ide\shl\udockwnd.h
e:\cafe\v3\support\guitools\ide\shl\uiconnec.h
e:\cafe\v3\support\guitools\ide\shl\uiconset.h
e:\cafe\v3\support\guitools\ide\shl\uioptdlg.h
e:\cafe\v3\support\guitools\ide\shl\uioutput.h
e:\cafe\v3\support\guitools\ide\shl\uitabdlg.h
e:\cafe\v3\support\guitools\ide\shl\uiwbdlg.h
e:\cafe\v3\support\guitools\ide\shl\uiwbmsg.h
e:\cafe\v3\support\guitools\ide\shl\umainfrm.h
e:\cafe\v3\support\guitools\ide\shl\upropwnd.h
e:\cafe\v3\support\guitools\ide\shl\utbardlg.h
e:\cafe\v3\support\guitools\ide\shl\utoolbar.h
e:\cafe\v3\support\guitools\ide\shl\uwbframe.h
e:\cafe\v3\support\guitools\coclip.cpp
e:\cafe\v3\support\guitools\imewrap.cpp
e:\cafe\v3\support\guitools\mstwrap.cpp
e:\cafe\v3\support\guitools\testutil.cpp
e:\cafe\v3\support\guitools\udialog.cpp
e:\cafe\v3\support\guitools\umsgbox.cpp
e:\cafe\v3\support\guitools\uwindow.cpp
e:\cafe\v3\support\guitools\ide\dbg\cobp.cpp
e:\cafe\v3\support\guitools\ide\dbg\cobrowse.cpp
e:\cafe\v3\support\guitools\ide\dbg\cocp.cpp
e:\cafe\v3\support\guitools\ide\dbg\codam.cpp
e:\cafe\v3\support\guitools\ide\dbg\codebug.cpp
e:\cafe\v3\support\guitools\ide\dbg\coee.cpp
e:\cafe\v3\support\guitools\ide\dbg\coexcpt.cpp
e:\cafe\v3\support\guitools\ide\dbg\comem.cpp
e:\cafe\v3\support\guitools\ide\dbg\coreg.cpp
e:\cafe\v3\support\guitools\ide\dbg\costack.cpp
e:\cafe\v3\support\guitools\ide\dbg\cothread.cpp
e:\cafe\v3\support\guitools\ide\dbg\uibp.cpp
e:\cafe\v3\support\guitools\ide\dbg\uibrowse.cpp
e:\cafe\v3\support\guitools\ide\dbg\uicp.cpp
e:\cafe\v3\support\guitools\ide\dbg\uidam.cpp
e:\cafe\v3\support\guitools\ide\dbg\uidebug.cpp
e:\cafe\v3\support\guitools\ide\dbg\uieewnd.cpp
e:\cafe\v3\support\guitools\ide\dbg\uiexcpt.cpp
e:\cafe\v3\support\guitools\ide\dbg\uilocals.cpp
e:\cafe\v3\support\guitools\ide\dbg\uimem.cpp
e:\cafe\v3\support\guitools\ide\dbg\uiqw.cpp
e:\cafe\v3\support\guitools\ide\dbg\uireg.cpp
e:\cafe\v3\support\guitools\ide\dbg\uistack.cpp
e:\cafe\v3\support\guitools\ide\dbg\uithread.cpp
e:\cafe\v3\support\guitools\ide\dbg\uivar.cpp
e:\cafe\v3\support\guitools\ide\dbg\uiwatch.cpp
e:\cafe\v3\support\guitools\ide\eds\cofile.cpp
e:\cafe\v3\support\guitools\ide\eds\coresscr.cpp
e:\cafe\v3\support\guitools\ide\eds\cosource.cpp
e:\cafe\v3\support\guitools\ide\eds\uaccedit.cpp
e:\cafe\v3\support\guitools\ide\eds\udlgedit.cpp
e:\cafe\v3\support\guitools\ide\eds\ueditor.cpp
e:\cafe\v3\support\guitools\ide\eds\ufindinf.cpp
e:\cafe\v3\support\guitools\ide\eds\ufindrep.cpp
e:\cafe\v3\support\guitools\ide\eds\uimgedit.cpp
e:\cafe\v3\support\guitools\ide\eds\umenedit.cpp
e:\cafe\v3\support\guitools\ide\eds\uresbrws.cpp
e:\cafe\v3\support\guitools\ide\eds\uresedit.cpp
e:\cafe\v3\support\guitools\ide\eds\urestabl.cpp
e:\cafe\v3\support\guitools\ide\eds\ustredit.cpp
e:\cafe\v3\support\guitools\ide\eds\usymdlg.cpp
e:\cafe\v3\support\guitools\ide\eds\uveredit.cpp
e:\cafe\v3\support\guitools\ide\prj\coprject.cpp
e:\cafe\v3\support\guitools\ide\prj\odbcdlgs.cpp
e:\cafe\v3\support\guitools\ide\prj\uappwiz.cpp
e:\cafe\v3\support\guitools\ide\prj\ucwzdlg.cpp
e:\cafe\v3\support\guitools\ide\prj\uitarget.cpp
e:\cafe\v3\support\guitools\ide\prj\uprjfile.cpp
e:\cafe\v3\support\guitools\ide\prj\uprjprop.cpp
e:\cafe\v3\support\guitools\ide\prj\uprjtdlg.cpp
e:\cafe\v3\support\guitools\ide\prj\uogaldlg.cpp
e:\cafe\v3\support\guitools\ide\shl\coconnec.cpp
e:\cafe\v3\support\guitools\ide\shl\cowrkspc.cpp
e:\cafe\v3\support\guitools\ide\shl\ucommdlg.cpp
e:\cafe\v3\support\guitools\ide\shl\ucustdlg.cpp
e:\cafe\v3\support\guitools\ide\shl\udockwnd.cpp
e:\cafe\v3\support\guitools\ide\shl\uiconnec.cpp
e:\cafe\v3\support\guitools\ide\shl\uiconset.cpp
e:\cafe\v3\support\guitools\ide\shl\uioptdlg.cpp
e:\cafe\v3\support\guitools\ide\shl\uioutput.cpp
e:\cafe\v3\support\guitools\ide\shl\uitabdlg.cpp
e:\cafe\v3\support\guitools\ide\shl\uiwbdlg.cpp
e:\cafe\v3\support\guitools\ide\shl\uiwbmsg.cpp
e:\cafe\v3\support\guitools\ide\shl\umainfrm.cpp
e:\cafe\v3\support\guitools\ide\shl\upropwnd.cpp
e:\cafe\v3\support\guitools\ide\shl\utbardlg.cpp
e:\cafe\v3\support\guitools\ide\shl\utoolbar.cpp
e:\cafe\v3\support\guitools\ide\shl\uwbframe.cpp
e:\cafe\v3\support\guitools\ide\shl\wbutil.cpp
